%YAML 1.1
%TAG !u! tag:unity3d.com,2011:
--- !u!114 &11400000
MonoBehaviour:
  m_ObjectHideFlags: 0
  m_CorrespondingSourceObject: {fileID: 0}
  m_PrefabInstance: {fileID: 0}
  m_PrefabAsset: {fileID: 0}
  m_GameObject: {fileID: 0}
  m_Enabled: 1
  m_EditorHideFlags: 0
  m_Script: {fileID: 11500000, guid: 8d92d14ef9d0549acad54caaee63d9d1, type: 3}
  m_Name: SetRandomWayPoints
  m_EditorClassIdentifier: 
  randomPoints:
    wayPoints:
    - {x: 2, y: 0.5, z: 4}
    - {x: -6, y: 0.5, z: 10}
    - {x: 8, y: 0.5, z: 15}
